module gitlab.com/gett-hackathon/life-science-backend

require (
	github.com/davecgh/go-spew v1.1.1 // indirect
	github.com/dgrijalva/jwt-go v3.2.0+incompatible // indirect
	github.com/kr/pretty v0.1.0 // indirect
	github.com/labstack/echo v3.2.1+incompatible
	github.com/labstack/gommon v0.2.7 // indirect
	github.com/mattn/go-colorable v0.0.9 // indirect
	github.com/mattn/go-isatty v0.0.4 // indirect
	github.com/pmezard/go-difflib v1.0.0 // indirect
	github.com/stretchr/testify v1.2.2 // indirect
	github.com/valyala/bytebufferpool v1.0.0 // indirect
	github.com/valyala/fasttemplate v0.0.0-20170224212429-dcecefd839c4 // indirect
	golang.org/x/crypto v0.0.0-20181001203147-e3636079e1a4 // indirect
	golang.org/x/sys v0.0.0-20180928133829-e4b3c5e90611 // indirect
	gopkg.in/check.v1 v1.0.0-20180628173108-788fd7840127 // indirect
	gopkg.in/mgo.v2 v2.0.0-20180705113604-9856a29383ce
	gopkg.in/yaml.v2 v2.2.1 // indirect
)
